[
    {
        "jmhVersion" : "1.36",
        "benchmark" : "benchmarks.AppendBenchmark.bench00_prepend",
        "mode" : "thrpt",
        "threads" : 1,
        "forks" : 4,
        "jvm" : "/private/var/root/Library/Caches/Coursier/arc/https/github.com/adoptium/temurin17-binaries/releases/download/jdk-17.0.6%252B10/OpenJDK17U-jdk_x64_mac_hotspot_17.0.6_10.tar.gz/jdk-17.0.6+10/Contents/Home/bin/java",
        "jvmArgs" : [
        ],
        "jdkVersion" : "17.0.6",
        "vmName" : "OpenJDK 64-Bit Server VM",
        "vmVersion" : "17.0.6+10",
        "warmupIterations" : 5,
        "warmupTime" : "2 s",
        "warmupBatchSize" : 1,
        "measurementIterations" : 5,
        "measurementTime" : "2 s",
        "measurementBatchSize" : 1,
        "params" : {
            "seqType" : "List"
        },
        "primaryMetric" : {
            "score" : 4.893678169190596E8,
            "scoreError" : 3425286.2912830976,
            "scoreConfidence" : [
                4.859425306277765E8,
                4.9279310321034265E8
            ],
            "scorePercentiles" : {
                "0.0" : 4.800557005610914E8,
                "50.0" : 4.902576285241723E8,
                "90.0" : 4.944236268146865E8,
                "95.0" : 4.946731063957179E8,
                "99.0" : 4.946765552159545E8,
                "99.9" : 4.946765552159545E8,
                "99.99" : 4.946765552159545E8,
                "99.999" : 4.946765552159545E8,
                "99.9999" : 4.946765552159545E8,
                "100.0" : 4.946765552159545E8
            },
            "scoreUnit" : "ops/s",
            "rawData" : [
                [
                    4.8390509621676195E8,
                    4.800557005610914E8,
                    4.8637443340739936E8,
                    4.852674063610991E8,
                    4.8553897115019083E8
                ],
                [
                    4.8797121593511873E8,
                    4.8501024296307E8,
                    4.9126698289142776E8,
                    4.900086424689439E8,
                    4.909485992739081E8
                ],
                [
                    4.9252044258667123E8,
                    4.8977032454141927E8,
                    4.9241139472755885E8,
                    4.9276805884585804E8,
                    4.905066145794008E8
                ],
                [
                    4.8833953737193274E8,
                    4.946765552159545E8,
                    4.9275111897748905E8,
                    4.926574214946739E8,
                    4.94607578811223E8
                ]
            ]
        },
        "secondaryMetrics" : {
        }
    },
    {
        "jmhVersion" : "1.36",
        "benchmark" : "benchmarks.AppendBenchmark.bench00_prepend",
        "mode" : "thrpt",
        "threads" : 1,
        "forks" : 4,
        "jvm" : "/private/var/root/Library/Caches/Coursier/arc/https/github.com/adoptium/temurin17-binaries/releases/download/jdk-17.0.6%252B10/OpenJDK17U-jdk_x64_mac_hotspot_17.0.6_10.tar.gz/jdk-17.0.6+10/Contents/Home/bin/java",
        "jvmArgs" : [
        ],
        "jdkVersion" : "17.0.6",
        "vmName" : "OpenJDK 64-Bit Server VM",
        "vmVersion" : "17.0.6+10",
        "warmupIterations" : 5,
        "warmupTime" : "2 s",
        "warmupBatchSize" : 1,
        "measurementIterations" : 5,
        "measurementTime" : "2 s",
        "measurementBatchSize" : 1,
        "params" : {
            "seqType" : "Array"
        },
        "primaryMetric" : {
            "score" : 274162.7628903021,
            "scoreError" : 2338.355032641355,
            "scoreConfidence" : [
                271824.4078576607,
                276501.1179229435
            ],
            "scorePercentiles" : {
                "0.0" : 265310.5428446132,
                "50.0" : 274262.2938556825,
                "90.0" : 277493.4684822387,
                "95.0" : 278733.0403197289,
                "99.0" : 278794.62250167964,
                "99.9" : 278794.62250167964,
                "99.99" : 278794.62250167964,
                "99.999" : 278794.62250167964,
                "99.9999" : 278794.62250167964,
                "100.0" : 278794.62250167964
            },
            "scoreUnit" : "ops/s",
            "rawData" : [
                [
                    272648.0903424814,
                    275371.6028551139,
                    275254.7678348332,
                    274080.3706066835,
                    273171.1422737155
                ],
                [
                    272667.33599022956,
                    274319.9698406046,
                    274584.892930142,
                    275925.08555001806,
                    276867.875058399
                ],
                [
                    272635.685802109,
                    274204.6178707603,
                    275334.11700525833,
                    265310.5428446132,
                    272905.19803954824
                ],
                [
                    272920.68640606396,
                    273755.7773934639,
                    277562.97886266536,
                    278794.62250167964,
                    274939.8977976595
                ]
            ]
        },
        "secondaryMetrics" : {
        }
    },
    {
        "jmhVersion" : "1.36",
        "benchmark" : "benchmarks.AppendBenchmark.bench01_append",
        "mode" : "thrpt",
        "threads" : 1,
        "forks" : 4,
        "jvm" : "/private/var/root/Library/Caches/Coursier/arc/https/github.com/adoptium/temurin17-binaries/releases/download/jdk-17.0.6%252B10/OpenJDK17U-jdk_x64_mac_hotspot_17.0.6_10.tar.gz/jdk-17.0.6+10/Contents/Home/bin/java",
        "jvmArgs" : [
        ],
        "jdkVersion" : "17.0.6",
        "vmName" : "OpenJDK 64-Bit Server VM",
        "vmVersion" : "17.0.6+10",
        "warmupIterations" : 5,
        "warmupTime" : "2 s",
        "warmupBatchSize" : 1,
        "measurementIterations" : 5,
        "measurementTime" : "2 s",
        "measurementBatchSize" : 1,
        "params" : {
            "seqType" : "List"
        },
        "primaryMetric" : {
            "score" : 17096.931737178664,
            "scoreError" : 507.90917707806057,
            "scoreConfidence" : [
                16589.022560100602,
                17604.840914256725
            ],
            "scorePercentiles" : {
                "0.0" : 16196.471331211134,
                "50.0" : 17153.67902926314,
                "90.0" : 17789.543001933987,
                "95.0" : 17827.922733924283,
                "99.0" : 17829.488421007303,
                "99.9" : 17829.488421007303,
                "99.99" : 17829.488421007303,
                "99.999" : 17829.488421007303,
                "99.9999" : 17829.488421007303,
                "100.0" : 17829.488421007303
            },
            "scoreUnit" : "ops/s",
            "rawData" : [
                [
                    17416.510194772924,
                    17595.37408043214,
                    17571.971124055493,
                    17586.792202253037,
                    17632.775189617172
                ],
                [
                    17572.550208971596,
                    17798.174679346892,
                    17649.892353502215,
                    17711.857905217865,
                    17829.488421007303
                ],
                [
                    16890.847863753363,
                    16196.471331211134,
                    16421.243728556292,
                    16265.25760846098,
                    16513.46208762414
                ],
                [
                    16457.78397375109,
                    16449.053507162662,
                    16808.02986821921,
                    16859.09457510693,
                    16712.003840550915
                ]
            ]
        },
        "secondaryMetrics" : {
        }
    },
    {
        "jmhVersion" : "1.36",
        "benchmark" : "benchmarks.AppendBenchmark.bench01_append",
        "mode" : "thrpt",
        "threads" : 1,
        "forks" : 4,
        "jvm" : "/private/var/root/Library/Caches/Coursier/arc/https/github.com/adoptium/temurin17-binaries/releases/download/jdk-17.0.6%252B10/OpenJDK17U-jdk_x64_mac_hotspot_17.0.6_10.tar.gz/jdk-17.0.6+10/Contents/Home/bin/java",
        "jvmArgs" : [
        ],
        "jdkVersion" : "17.0.6",
        "vmName" : "OpenJDK 64-Bit Server VM",
        "vmVersion" : "17.0.6+10",
        "warmupIterations" : 5,
        "warmupTime" : "2 s",
        "warmupBatchSize" : 1,
        "measurementIterations" : 5,
        "measurementTime" : "2 s",
        "measurementBatchSize" : 1,
        "params" : {
            "seqType" : "Array"
        },
        "primaryMetric" : {
            "score" : 238323.213961686,
            "scoreError" : 77612.87736804709,
            "scoreConfidence" : [
                160710.33659363893,
                315936.0913297331
            ],
            "scorePercentiles" : {
                "0.0" : 73766.81259042509,
                "50.0" : 290610.7144673075,
                "90.0" : 313443.2424886844,
                "95.0" : 326257.0067899261,
                "99.0" : 326898.73311655596,
                "99.9" : 326898.73311655596,
                "99.99" : 326898.73311655596,
                "99.999" : 326898.73311655596,
                "99.9999" : 326898.73311655596,
                "100.0" : 326898.73311655596
            },
            "scoreUnit" : "ops/s",
            "rawData" : [
                [
                    326898.73311655596,
                    294169.65138080175,
                    307854.56563121785,
                    289012.3084432803,
                    302312.11691508105
                ],
                [
                    292714.2471422587,
                    314064.20658395847,
                    302659.8098916822,
                    257611.0973836947,
                    166652.52768673014
                ],
                [
                    113239.36481021093,
                    111431.86489893375,
                    131214.71910471836,
                    73828.75973458456,
                    73766.81259042509
                ],
                [
                    225051.81895117802,
                    292209.1204913347,
                    302920.29515894485,
                    300481.2022735654,
                    288371.0570445642
                ]
            ]
        },
        "secondaryMetrics" : {
        }
    }
]


